<svg width="24" height="24" viewBox="0 0 24 24" fill="none" xmlns="http://www.w3.org/2000/svg">
<g clip-path="url(#clip0)">
<path d="M3 15.2188V4C3 2.89543 3.89543 2 5 2H16.5V17.5H5.36607C3.47031 17.5 2.92782 20.0934 4.66463 20.8533V20.8533C4.88582 20.95 5.12463 21 5.36606 21H20V5.5" stroke="#484953" stroke-width="1.8"/>
</g>
<defs>
<clipPath id="clip0">
<rect width="24" height="24" fill="white"/>
</clipPath>
</defs>
</svg>
