<svg width="21" height="19" viewBox="0 0 21 19" fill="none" xmlns="http://www.w3.org/2000/svg">
<path d="M0 1H4L5.5 6" stroke="#484953" stroke-width="1.8"/>
<path d="M7.46635 13.2894L5.17833 4.9H18.6118C19.2966 4.9 19.8149 5.51896 19.6947 6.19311L18.4465 13.1931C18.3529 13.7178 17.8966 14.1 17.3636 14.1H8.52759C8.03155 14.1 7.59687 13.768 7.46635 13.2894Z" stroke="#484953" stroke-width="1.8"/>
<circle cx="9" cy="17" r="2" fill="#484953"/>
<circle cx="17" cy="17" r="2" fill="#484953"/>
</svg>
