<svg width="16" height="16" viewBox="0 0 16 16" fill="none" xmlns="http://www.w3.org/2000/svg">
<path d="M4.33315 15.3334C3.3905 15.3355 2.48611 14.9608 1.8211 14.2928L1.0404 13.5121C-0.346779 12.1249 -0.346811 9.87588 1.04037 8.4887L1.0404 8.48867L7.4312 2.09787C7.55911 1.96546 7.77011 1.96177 7.90255 2.08968C8.03496 2.21759 8.03865 2.42859 7.91074 2.56103C7.90805 2.56381 7.90533 2.56653 7.90255 2.56922L1.51175 8.95933C0.385171 10.0863 0.385171 11.9131 1.51175 13.0401L2.29311 13.8214C3.4201 14.948 5.24685 14.948 6.37384 13.8214L14.724 5.47127C15.5363 4.65854 15.5363 3.3413 14.724 2.52856L14.138 1.94255C13.314 1.15779 12.0192 1.15779 11.1953 1.94255L3.7071 9.43065C3.20875 9.92894 3.20869 10.7369 3.70698 11.2352C3.70701 11.2352 3.70707 11.2353 3.7071 11.2353L4.09777 11.626C4.60553 12.1011 5.3947 12.1011 5.90245 11.626L11.4312 6.09725C11.5591 5.96484 11.7701 5.96115 11.9026 6.08906C12.035 6.21697 12.0386 6.42798 11.9107 6.56042C11.9081 6.5632 11.9053 6.56592 11.9026 6.5686L6.37384 12.0974C5.60107 12.8212 4.39921 12.8212 3.62645 12.0974L3.23578 11.7067C2.47711 10.9481 2.47711 9.718 3.23578 8.95933L10.7239 1.4712C11.7968 0.398277 13.5364 0.398277 14.6093 1.47117C14.6093 1.47117 14.6093 1.47117 14.6093 1.4712L15.1953 2.05721C16.2683 3.13014 16.2683 4.86967 15.1954 5.94259C15.1954 5.94259 15.1954 5.94259 15.1953 5.94262L6.84519 14.2928C6.18018 14.9608 5.27579 15.3355 4.33315 15.3334Z" fill="#002EA6"/>
</svg>
